…
``` r
library(dplyr)
library(readr)
library(readxl)
library(usethis) 
use_git_config(user.name = "trinh-pham1094", user.email = "trinh.pham1094@gmail.com")
Facilities <- read_excel("~/Desktop/Facilities_new.xlsx")

suicide <- read_excel("~/Desktop/suicide_rate.xlsx")
Facilities
```

    ## # A tibble: 112 x 7
    ##    country     year mental_hospitals health_units outpatient_faci… day_treatment
    ##    <chr>      <dbl>            <dbl>        <dbl>            <dbl>         <dbl>
    ##  1 Afghanist…  2016            0.003        0.012            0.006        NA    
    ##  2 Albania     2016            0.068        0.068            0.41         NA    
    ##  3 Algeria     2016            0.048        0.068            0.048        NA    
    ##  4 Angola      2016            0.011       NA               NA            NA    
    ##  5 Antigua a…  2016            1.00        NA               NA            NA    
    ##  6 Argentina   2016            0.937        1.07             1.72         NA    
    ##  7 Armenia     2016           NA            0.069            1.37          0.034
    ##  8 Azerbaijan  2016            0.114        0.021            0.156         0.094
    ##  9 Bangladesh  2016            0.001        0.035            0.055        NA    
    ## 10 Belarus     2016            0.2          0.063            0.116         0.285
    ## # … with 102 more rows, and 1 more variable: residential_facilities <dbl>

``` r
suicide
```

    ## # A tibble: 27,820 x 12
    ##    country  year sex    age         suicides_no population `suicides/100k_pop`
    ##    <chr>   <dbl> <chr>  <chr>             <dbl>      <dbl>               <dbl>
    ##  1 Albania  1987 male   15-24 years          21     312900                6.71
    ##  2 Albania  1987 male   35-54 years          16     308000                5.19
    ##  3 Albania  1987 female 15-24 years          14     289700                4.83
    ##  4 Albania  1987 male   75+ years             1      21800                4.59
    ##  5 Albania  1987 male   25-34 years           9     274300                3.28
    ##  6 Albania  1987 female 75+ years             1      35600                2.81
    ##  7 Albania  1987 female 35-54 years           6     278800                2.15
    ##  8 Albania  1987 female 25-34 years           4     257200                1.56
    ##  9 Albania  1987 male   55-74 years           1     137500                0.73
    ## 10 Albania  1987 female 5-14 years            0     311000                0   
    ## # … with 27,810 more rows, and 5 more variables: country-year <chr>,
    ## #   HDI_for_year <dbl>, gdp_for_year($) <dbl>, gdp_per_capita($) <dbl>,
    ## #   generation <chr>
…
``` r
#tidy data set by using pipe
suicide_tidy<- suicide %>% ## join/merge 2 dataset
   left_join(Facilities,by="country") %>%
  select(-'country-year',-'HDI_for_year',-'outpatient_facilities',-'residential_facilities' ,-'day_treatment',-'gdp_for_year($)',-'gdp_per_capita($)',-'suicides/100k_pop') %>%
  filter(year.x=="2016") %>%
  select(-year.y,-year.x) %>%  
  arrange(desc(suicides_no)) %>%
  na.omit()  %>%
  mutate_if(is.character,as.factor)
suicide_tidy
```

    ## # A tibble: 80 x 8
    ##    country   sex    age      suicides_no population generation  mental_hospitals
    ##    <fct>     <fct>  <fct>          <dbl>      <dbl> <fct>                  <dbl>
    ##  1 Thailand  male   35-54 y…        1421   10084647 Generation…            0.028
    ##  2 Thailand  male   55-74 y…         734    5203957 Boomers                0.028
    ##  3 Thailand  male   25-34 y…         646    4796355 Millenials             0.028
    ##  4 Romania   male   35-54 y…         632    2945568 Generation…            0.171
    ##  5 Romania   male   55-74 y…         615    2068747 Boomers                0.171
    ##  6 Thailand  female 35-54 y…         375   10629684 Generation…            0.028
    ##  7 Thailand  male   15-24 y…         322    4736305 Millenials             0.028
    ##  8 Lithuania male   35-54 y…         266     376689 Generation…            0.136
    ##  9 Thailand  female 55-74 y…         222    6049756 Boomers                0.028
    ## 10 Lithuania male   55-74 y…         212     277763 Boomers                0.136
    ## # … with 70 more rows, and 1 more variable: health_units <dbl>
…
